// Jest Snapshot v1, https://goo.gl/fbAQLP

exports[`GraduationSettings renders correctly 1`] = `
ShallowWrapper {
  "length": 1,
  Symbol(enzyme.__root__): [Circular],
  Symbol(enzyme.__unrendered__): <GraduationSettings
    GraduationSettingsStore={
        Object {
            "endYear": "",
            "fetchData": [Function],
            "saveGraduationSettings": [Function],
            "startYear": "",
            "updateGraduationYear": [Function],
          }
    }
/>,
  Symbol(enzyme.__renderer__): Object {
    "batchedUpdates": [Function],
    "getNode": [Function],
    "render": [Function],
    "simulateEvent": [Function],
    "unmount": [Function],
  },
  Symbol(enzyme.__node__): Object {
    "instance": null,
    "key": undefined,
    "nodeType": "host",
    "props": Object {
      "children": Array [
        <PageHeader
          headerText="Graduation Settings"
/>,
        <p>
          Please enter the Start and End years of graduation.
</p>,
        <TextField
          className="md-cell"
          floating={true}
          fullWidth={true}
          id="startYear"
          label="Graduation Start Year"
          leftIconStateful={true}
          lineDirection="left"
          name="startYear"
          onBlur={[Function]}
          onChange={[Function]}
          passwordIcon={
                    <FontIcon
                              iconClassName="material-icons"
                    >
                              remove_red_eye
                    </FontIcon>
          }
          rightIconStateful={true}
          type="text"
          value=""
/>,
        <TextField
          className="md-cell"
          floating={true}
          fullWidth={true}
          id="endYear"
          label="Graduation End Year"
          leftIconStateful={true}
          lineDirection="left"
          name="endYear"
          onBlur={[Function]}
          onChange={[Function]}
          passwordIcon={
                    <FontIcon
                              iconClassName="material-icons"
                    >
                              remove_red_eye
                    </FontIcon>
          }
          rightIconStateful={true}
          type="text"
          value=""
/>,
        <NavButtons
          nextPage="/schoolBrandingStudentSettings"
          prevPage="/blockDateSettings"
/>,
      ],
      "className": "graduation-settings-container",
    },
    "ref": null,
    "rendered": Array [
      Object {
        "instance": null,
        "key": undefined,
        "nodeType": "function",
        "props": Object {
          "headerText": "Graduation Settings",
        },
        "ref": null,
        "rendered": null,
        "type": [Function],
      },
      Object {
        "instance": null,
        "key": undefined,
        "nodeType": "host",
        "props": Object {
          "children": "Please enter the Start and End years of graduation.",
        },
        "ref": null,
        "rendered": "Please enter the Start and End years of graduation.",
        "type": "p",
      },
      Object {
        "instance": null,
        "key": undefined,
        "nodeType": "class",
        "props": Object {
          "className": "md-cell",
          "floating": true,
          "fullWidth": true,
          "id": "startYear",
          "label": "Graduation Start Year",
          "leftIconStateful": true,
          "lineDirection": "left",
          "name": "startYear",
          "onBlur": [Function],
          "onChange": [Function],
          "passwordIcon": <FontIcon
            iconClassName="material-icons"
>
            remove_red_eye
</FontIcon>,
          "rightIconStateful": true,
          "type": "text",
          "value": "",
        },
        "ref": null,
        "rendered": null,
        "type": [Function],
      },
      Object {
        "instance": null,
        "key": undefined,
        "nodeType": "class",
        "props": Object {
          "className": "md-cell",
          "floating": true,
          "fullWidth": true,
          "id": "endYear",
          "label": "Graduation End Year",
          "leftIconStateful": true,
          "lineDirection": "left",
          "name": "endYear",
          "onBlur": [Function],
          "onChange": [Function],
          "passwordIcon": <FontIcon
            iconClassName="material-icons"
>
            remove_red_eye
</FontIcon>,
          "rightIconStateful": true,
          "type": "text",
          "value": "",
        },
        "ref": null,
        "rendered": null,
        "type": [Function],
      },
      Object {
        "instance": null,
        "key": undefined,
        "nodeType": "function",
        "props": Object {
          "nextPage": "/schoolBrandingStudentSettings",
          "prevPage": "/blockDateSettings",
        },
        "ref": null,
        "rendered": null,
        "type": [Function],
      },
    ],
    "type": "div",
  },
  Symbol(enzyme.__nodes__): Array [
    Object {
      "instance": null,
      "key": undefined,
      "nodeType": "host",
      "props": Object {
        "children": Array [
          <PageHeader
            headerText="Graduation Settings"
/>,
          <p>
            Please enter the Start and End years of graduation.
</p>,
          <TextField
            className="md-cell"
            floating={true}
            fullWidth={true}
            id="startYear"
            label="Graduation Start Year"
            leftIconStateful={true}
            lineDirection="left"
            name="startYear"
            onBlur={[Function]}
            onChange={[Function]}
            passwordIcon={
                        <FontIcon
                                    iconClassName="material-icons"
                        >
                                    remove_red_eye
                        </FontIcon>
            }
            rightIconStateful={true}
            type="text"
            value=""
/>,
          <TextField
            className="md-cell"
            floating={true}
            fullWidth={true}
            id="endYear"
            label="Graduation End Year"
            leftIconStateful={true}
            lineDirection="left"
            name="endYear"
            onBlur={[Function]}
            onChange={[Function]}
            passwordIcon={
                        <FontIcon
                                    iconClassName="material-icons"
                        >
                                    remove_red_eye
                        </FontIcon>
            }
            rightIconStateful={true}
            type="text"
            value=""
/>,
          <NavButtons
            nextPage="/schoolBrandingStudentSettings"
            prevPage="/blockDateSettings"
/>,
        ],
        "className": "graduation-settings-container",
      },
      "ref": null,
      "rendered": Array [
        Object {
          "instance": null,
          "key": undefined,
          "nodeType": "function",
          "props": Object {
            "headerText": "Graduation Settings",
          },
          "ref": null,
          "rendered": null,
          "type": [Function],
        },
        Object {
          "instance": null,
          "key": undefined,
          "nodeType": "host",
          "props": Object {
            "children": "Please enter the Start and End years of graduation.",
          },
          "ref": null,
          "rendered": "Please enter the Start and End years of graduation.",
          "type": "p",
        },
        Object {
          "instance": null,
          "key": undefined,
          "nodeType": "class",
          "props": Object {
            "className": "md-cell",
            "floating": true,
            "fullWidth": true,
            "id": "startYear",
            "label": "Graduation Start Year",
            "leftIconStateful": true,
            "lineDirection": "left",
            "name": "startYear",
            "onBlur": [Function],
            "onChange": [Function],
            "passwordIcon": <FontIcon
              iconClassName="material-icons"
>
              remove_red_eye
</FontIcon>,
            "rightIconStateful": true,
            "type": "text",
            "value": "",
          },
          "ref": null,
          "rendered": null,
          "type": [Function],
        },
        Object {
          "instance": null,
          "key": undefined,
          "nodeType": "class",
          "props": Object {
            "className": "md-cell",
            "floating": true,
            "fullWidth": true,
            "id": "endYear",
            "label": "Graduation End Year",
            "leftIconStateful": true,
            "lineDirection": "left",
            "name": "endYear",
            "onBlur": [Function],
            "onChange": [Function],
            "passwordIcon": <FontIcon
              iconClassName="material-icons"
>
              remove_red_eye
</FontIcon>,
            "rightIconStateful": true,
            "type": "text",
            "value": "",
          },
          "ref": null,
          "rendered": null,
          "type": [Function],
        },
        Object {
          "instance": null,
          "key": undefined,
          "nodeType": "function",
          "props": Object {
            "nextPage": "/schoolBrandingStudentSettings",
            "prevPage": "/blockDateSettings",
          },
          "ref": null,
          "rendered": null,
          "type": [Function],
        },
      ],
      "type": "div",
    },
  ],
  Symbol(enzyme.__options__): Object {
    "adapter": ReactSixteenAdapter {
      "options": Object {
        "enableComponentDidUpdateOnSetState": true,
      },
    },
  },
}
`;
