// Jest Snapshot v1, https://goo.gl/fbAQLP

exports[`SendWelcomeNotificationsDisplay renders correctly 1`] = `
ShallowWrapper {
  "length": 1,
  Symbol(enzyme.__root__): [Circular],
  Symbol(enzyme.__unrendered__): <SendWelcomeNotificationsDisplay />,
  Symbol(enzyme.__renderer__): Object {
    "batchedUpdates": [Function],
    "getNode": [Function],
    "render": [Function],
    "simulateEvent": [Function],
    "unmount": [Function],
  },
  Symbol(enzyme.__node__): Object {
    "instance": null,
    "key": undefined,
    "nodeType": "host",
    "props": Object {
      "children": Array [
        <PageHeader
          headerText="Send Welcome Notifications"
/>,
        <p>
          You are now ready to send out notifications welcoming your users to the application.  These emails will include a temporary password to log on initially.  Once logged on they can change their individual passwords."
</p>,
        <p>
          To finish this process, select the users you'd like to email from the list below.  You can choose any or all options.  Once logged in, an admin can finish this process from inside the application.
</p>,
        <EmailSelectors />,
        <NavButtons
          nextPage="/finish"
          prevPage="/setTechnicalContact"
/>,
      ],
    },
    "ref": null,
    "rendered": Array [
      Object {
        "instance": null,
        "key": undefined,
        "nodeType": "function",
        "props": Object {
          "headerText": "Send Welcome Notifications",
        },
        "ref": null,
        "rendered": null,
        "type": [Function],
      },
      Object {
        "instance": null,
        "key": undefined,
        "nodeType": "host",
        "props": Object {
          "children": "You are now ready to send out notifications welcoming your users to the application.  These emails will include a temporary password to log on initially.  Once logged on they can change their individual passwords.\\"",
        },
        "ref": null,
        "rendered": "You are now ready to send out notifications welcoming your users to the application.  These emails will include a temporary password to log on initially.  Once logged on they can change their individual passwords.\\"",
        "type": "p",
      },
      Object {
        "instance": null,
        "key": undefined,
        "nodeType": "host",
        "props": Object {
          "children": "To finish this process, select the users you'd like to email from the list below.  You can choose any or all options.  Once logged in, an admin can finish this process from inside the application.",
        },
        "ref": null,
        "rendered": "To finish this process, select the users you'd like to email from the list below.  You can choose any or all options.  Once logged in, an admin can finish this process from inside the application.",
        "type": "p",
      },
      Object {
        "instance": null,
        "key": undefined,
        "nodeType": "class",
        "props": Object {},
        "ref": null,
        "rendered": null,
        "type": [Function],
      },
      Object {
        "instance": null,
        "key": undefined,
        "nodeType": "function",
        "props": Object {
          "nextPage": "/finish",
          "prevPage": "/setTechnicalContact",
        },
        "ref": null,
        "rendered": null,
        "type": [Function],
      },
    ],
    "type": "div",
  },
  Symbol(enzyme.__nodes__): Array [
    Object {
      "instance": null,
      "key": undefined,
      "nodeType": "host",
      "props": Object {
        "children": Array [
          <PageHeader
            headerText="Send Welcome Notifications"
/>,
          <p>
            You are now ready to send out notifications welcoming your users to the application.  These emails will include a temporary password to log on initially.  Once logged on they can change their individual passwords."
</p>,
          <p>
            To finish this process, select the users you'd like to email from the list below.  You can choose any or all options.  Once logged in, an admin can finish this process from inside the application.
</p>,
          <EmailSelectors />,
          <NavButtons
            nextPage="/finish"
            prevPage="/setTechnicalContact"
/>,
        ],
      },
      "ref": null,
      "rendered": Array [
        Object {
          "instance": null,
          "key": undefined,
          "nodeType": "function",
          "props": Object {
            "headerText": "Send Welcome Notifications",
          },
          "ref": null,
          "rendered": null,
          "type": [Function],
        },
        Object {
          "instance": null,
          "key": undefined,
          "nodeType": "host",
          "props": Object {
            "children": "You are now ready to send out notifications welcoming your users to the application.  These emails will include a temporary password to log on initially.  Once logged on they can change their individual passwords.\\"",
          },
          "ref": null,
          "rendered": "You are now ready to send out notifications welcoming your users to the application.  These emails will include a temporary password to log on initially.  Once logged on they can change their individual passwords.\\"",
          "type": "p",
        },
        Object {
          "instance": null,
          "key": undefined,
          "nodeType": "host",
          "props": Object {
            "children": "To finish this process, select the users you'd like to email from the list below.  You can choose any or all options.  Once logged in, an admin can finish this process from inside the application.",
          },
          "ref": null,
          "rendered": "To finish this process, select the users you'd like to email from the list below.  You can choose any or all options.  Once logged in, an admin can finish this process from inside the application.",
          "type": "p",
        },
        Object {
          "instance": null,
          "key": undefined,
          "nodeType": "class",
          "props": Object {},
          "ref": null,
          "rendered": null,
          "type": [Function],
        },
        Object {
          "instance": null,
          "key": undefined,
          "nodeType": "function",
          "props": Object {
            "nextPage": "/finish",
            "prevPage": "/setTechnicalContact",
          },
          "ref": null,
          "rendered": null,
          "type": [Function],
        },
      ],
      "type": "div",
    },
  ],
  Symbol(enzyme.__options__): Object {
    "adapter": ReactSixteenAdapter {
      "options": Object {
        "enableComponentDidUpdateOnSetState": true,
      },
    },
  },
}
`;
