// Jest Snapshot v1, https://goo.gl/fbAQLP

exports[`StaffersList should render correctly 1`] = `
ShallowWrapper {
  "length": 1,
  Symbol(enzyme.__root__): [Circular],
  Symbol(enzyme.__unrendered__): <StaffersList
    numberOfActiveUsers={10}
    numberOfLicenses={20}
    saveSetAdmins={[Function]}
    staffers={
        Array [
            Object {
              "firstName": "Mark",
              "lastName": "Bernard",
              "userId": 1,
              "userIsActive": false,
              "userIsAdmin": true,
              "userTypeId": 2,
            },
            Object {
              "firstName": "Vince",
              "lastName": "Bernard",
              "userId": 2,
              "userIsActive": false,
              "userIsAdmin": true,
              "userTypeId": 2,
            },
            Object {
              "firstName": "John",
              "lastName": "Gerken",
              "userId": 3,
              "userIsActive": false,
              "userIsAdmin": true,
              "userTypeId": 2,
            },
          ]
    }
/>,
  Symbol(enzyme.__renderer__): Object {
    "batchedUpdates": [Function],
    "getNode": [Function],
    "render": [Function],
    "simulateEvent": [Function],
    "unmount": [Function],
  },
  Symbol(enzyme.__node__): Object {
    "instance": null,
    "key": undefined,
    "nodeType": "host",
    "props": Object {
      "children": Array [
        <div>
          <p>
                    Please note, as you mark a user as active it will use one of licenses that your school has purchased.  You are currently using 
                    10
                     licenses of the 
                    20
                     total you've purchased.
          </p>
</div>,
        <div>
          <p>
                    Licenses Purchased: 
                    20
                     / 
                    <span
                              className="no-error"
                    >
                              Licenses Used: 
                              10
                    </span>
          </p>
</div>,
        <div>
          <SelectionControl
                    checkedCheckboxIcon={
                              <FontIcon
                                        iconClassName="material-icons"
                              >
                                        check_box
                              </FontIcon>
                    }
                    checkedRadioIcon={
                              <FontIcon
                                        iconClassName="material-icons"
                              >
                                        radio_button_checked
                              </FontIcon>
                    }
                    className="md-cell"
                    id="all-is-active"
                    label="Mark all Is Active"
                    labelBefore={true}
                    name="all-is-active"
                    onChange={[Function]}
                    type="checkbox"
                    uncheckedCheckboxIcon={
                              <FontIcon
                                        iconClassName="material-icons"
                              >
                                        check_box_outline_blank
                              </FontIcon>
                    }
                    uncheckedRadioIcon={
                              <FontIcon
                                        iconClassName="material-icons"
                              >
                                        radio_button_unchecked
                              </FontIcon>
                    }
          />
</div>,
        <div>
          <ul
                    className="list-subheadings"
          >
                    <li>
                              Teacher Name
                    </li>
                    <li>
                              Is Admin
                    </li>
                    <li>
                              Is Active
                    </li>
                    <li>
                              Room Number
                    </li>
          </ul>
</div>,
        <div
          className="list-of-teacher-info"
>
          <StaffersListItem
                    details={
                              Object {
                                        "firstName": "Mark",
                                        "lastName": "Bernard",
                                        "userId": 1,
                                        "userIsActive": false,
                                        "userIsAdmin": true,
                                        "userTypeId": 2,
                                      }
                    }
                    handleInputChange={undefined}
                    handleRoomNumberChange={undefined}
                    index={0}
                    saveRoomNumber={undefined}
                    saveSetAdmins={[Function]}
          />
          <StaffersListItem
                    details={
                              Object {
                                        "firstName": "Vince",
                                        "lastName": "Bernard",
                                        "userId": 2,
                                        "userIsActive": false,
                                        "userIsAdmin": true,
                                        "userTypeId": 2,
                                      }
                    }
                    handleInputChange={undefined}
                    handleRoomNumberChange={undefined}
                    index={1}
                    saveRoomNumber={undefined}
                    saveSetAdmins={[Function]}
          />
          <StaffersListItem
                    details={
                              Object {
                                        "firstName": "John",
                                        "lastName": "Gerken",
                                        "userId": 3,
                                        "userIsActive": false,
                                        "userIsAdmin": true,
                                        "userTypeId": 2,
                                      }
                    }
                    handleInputChange={undefined}
                    handleRoomNumberChange={undefined}
                    index={2}
                    saveRoomNumber={undefined}
                    saveSetAdmins={[Function]}
          />
</div>,
      ],
    },
    "ref": null,
    "rendered": Array [
      Object {
        "instance": null,
        "key": undefined,
        "nodeType": "host",
        "props": Object {
          "children": <p>
            Please note, as you mark a user as active it will use one of licenses that your school has purchased.  You are currently using 
            10
             licenses of the 
            20
             total you've purchased.
</p>,
        },
        "ref": null,
        "rendered": Object {
          "instance": null,
          "key": undefined,
          "nodeType": "host",
          "props": Object {
            "children": Array [
              "Please note, as you mark a user as active it will use one of licenses that your school has purchased.  You are currently using ",
              10,
              " licenses of the ",
              20,
              " total you've purchased.",
            ],
          },
          "ref": null,
          "rendered": Array [
            "Please note, as you mark a user as active it will use one of licenses that your school has purchased.  You are currently using ",
            10,
            " licenses of the ",
            20,
            " total you've purchased.",
          ],
          "type": "p",
        },
        "type": "div",
      },
      Object {
        "instance": null,
        "key": undefined,
        "nodeType": "host",
        "props": Object {
          "children": <p>
            Licenses Purchased: 
            20
             / 
            <span
                        className="no-error"
            >
                        Licenses Used: 
                        10
            </span>
</p>,
        },
        "ref": null,
        "rendered": Object {
          "instance": null,
          "key": undefined,
          "nodeType": "host",
          "props": Object {
            "children": Array [
              "Licenses Purchased: ",
              20,
              " / ",
              <span
                className="no-error"
>
                Licenses Used: 
                10
</span>,
            ],
          },
          "ref": null,
          "rendered": Array [
            "Licenses Purchased: ",
            20,
            " / ",
            Object {
              "instance": null,
              "key": undefined,
              "nodeType": "host",
              "props": Object {
                "children": Array [
                  "Licenses Used: ",
                  10,
                ],
                "className": "no-error",
              },
              "ref": null,
              "rendered": Array [
                "Licenses Used: ",
                10,
              ],
              "type": "span",
            },
          ],
          "type": "p",
        },
        "type": "div",
      },
      Object {
        "instance": null,
        "key": undefined,
        "nodeType": "host",
        "props": Object {
          "children": <SelectionControl
            checkedCheckboxIcon={
                        <FontIcon
                                    iconClassName="material-icons"
                        >
                                    check_box
                        </FontIcon>
            }
            checkedRadioIcon={
                        <FontIcon
                                    iconClassName="material-icons"
                        >
                                    radio_button_checked
                        </FontIcon>
            }
            className="md-cell"
            id="all-is-active"
            label="Mark all Is Active"
            labelBefore={true}
            name="all-is-active"
            onChange={[Function]}
            type="checkbox"
            uncheckedCheckboxIcon={
                        <FontIcon
                                    iconClassName="material-icons"
                        >
                                    check_box_outline_blank
                        </FontIcon>
            }
            uncheckedRadioIcon={
                        <FontIcon
                                    iconClassName="material-icons"
                        >
                                    radio_button_unchecked
                        </FontIcon>
            }
/>,
        },
        "ref": null,
        "rendered": Object {
          "instance": null,
          "key": undefined,
          "nodeType": "class",
          "props": Object {
            "checkedCheckboxIcon": <FontIcon
              iconClassName="material-icons"
>
              check_box
</FontIcon>,
            "checkedRadioIcon": <FontIcon
              iconClassName="material-icons"
>
              radio_button_checked
</FontIcon>,
            "className": "md-cell",
            "id": "all-is-active",
            "label": "Mark all Is Active",
            "labelBefore": true,
            "name": "all-is-active",
            "onChange": [Function],
            "type": "checkbox",
            "uncheckedCheckboxIcon": <FontIcon
              iconClassName="material-icons"
>
              check_box_outline_blank
</FontIcon>,
            "uncheckedRadioIcon": <FontIcon
              iconClassName="material-icons"
>
              radio_button_unchecked
</FontIcon>,
          },
          "ref": null,
          "rendered": null,
          "type": [Function],
        },
        "type": "div",
      },
      Object {
        "instance": null,
        "key": undefined,
        "nodeType": "host",
        "props": Object {
          "children": <ul
            className="list-subheadings"
>
            <li>
                        Teacher Name
            </li>
            <li>
                        Is Admin
            </li>
            <li>
                        Is Active
            </li>
            <li>
                        Room Number
            </li>
</ul>,
        },
        "ref": null,
        "rendered": Object {
          "instance": null,
          "key": undefined,
          "nodeType": "host",
          "props": Object {
            "children": Array [
              <li>
                Teacher Name
</li>,
              <li>
                Is Admin
</li>,
              <li>
                Is Active
</li>,
              <li>
                Room Number
</li>,
            ],
            "className": "list-subheadings",
          },
          "ref": null,
          "rendered": Array [
            Object {
              "instance": null,
              "key": undefined,
              "nodeType": "host",
              "props": Object {
                "children": "Teacher Name",
              },
              "ref": null,
              "rendered": "Teacher Name",
              "type": "li",
            },
            Object {
              "instance": null,
              "key": undefined,
              "nodeType": "host",
              "props": Object {
                "children": "Is Admin",
              },
              "ref": null,
              "rendered": "Is Admin",
              "type": "li",
            },
            Object {
              "instance": null,
              "key": undefined,
              "nodeType": "host",
              "props": Object {
                "children": "Is Active",
              },
              "ref": null,
              "rendered": "Is Active",
              "type": "li",
            },
            Object {
              "instance": null,
              "key": undefined,
              "nodeType": "host",
              "props": Object {
                "children": "Room Number",
              },
              "ref": null,
              "rendered": "Room Number",
              "type": "li",
            },
          ],
          "type": "ul",
        },
        "type": "div",
      },
      Object {
        "instance": null,
        "key": undefined,
        "nodeType": "host",
        "props": Object {
          "children": Array [
            <StaffersListItem
              details={
                            Object {
                                          "firstName": "Mark",
                                          "lastName": "Bernard",
                                          "userId": 1,
                                          "userIsActive": false,
                                          "userIsAdmin": true,
                                          "userTypeId": 2,
                                        }
              }
              handleInputChange={undefined}
              handleRoomNumberChange={undefined}
              index={0}
              saveRoomNumber={undefined}
              saveSetAdmins={[Function]}
/>,
            <StaffersListItem
              details={
                            Object {
                                          "firstName": "Vince",
                                          "lastName": "Bernard",
                                          "userId": 2,
                                          "userIsActive": false,
                                          "userIsAdmin": true,
                                          "userTypeId": 2,
                                        }
              }
              handleInputChange={undefined}
              handleRoomNumberChange={undefined}
              index={1}
              saveRoomNumber={undefined}
              saveSetAdmins={[Function]}
/>,
            <StaffersListItem
              details={
                            Object {
                                          "firstName": "John",
                                          "lastName": "Gerken",
                                          "userId": 3,
                                          "userIsActive": false,
                                          "userIsAdmin": true,
                                          "userTypeId": 2,
                                        }
              }
              handleInputChange={undefined}
              handleRoomNumberChange={undefined}
              index={2}
              saveRoomNumber={undefined}
              saveSetAdmins={[Function]}
/>,
          ],
          "className": "list-of-teacher-info",
        },
        "ref": null,
        "rendered": Array [
          Object {
            "instance": null,
            "key": "0",
            "nodeType": "function",
            "props": Object {
              "details": Object {
                "firstName": "Mark",
                "lastName": "Bernard",
                "userId": 1,
                "userIsActive": false,
                "userIsAdmin": true,
                "userTypeId": 2,
              },
              "handleInputChange": undefined,
              "handleRoomNumberChange": undefined,
              "index": 0,
              "saveRoomNumber": undefined,
              "saveSetAdmins": [Function],
            },
            "ref": null,
            "rendered": null,
            "type": [Function],
          },
          Object {
            "instance": null,
            "key": "1",
            "nodeType": "function",
            "props": Object {
              "details": Object {
                "firstName": "Vince",
                "lastName": "Bernard",
                "userId": 2,
                "userIsActive": false,
                "userIsAdmin": true,
                "userTypeId": 2,
              },
              "handleInputChange": undefined,
              "handleRoomNumberChange": undefined,
              "index": 1,
              "saveRoomNumber": undefined,
              "saveSetAdmins": [Function],
            },
            "ref": null,
            "rendered": null,
            "type": [Function],
          },
          Object {
            "instance": null,
            "key": "2",
            "nodeType": "function",
            "props": Object {
              "details": Object {
                "firstName": "John",
                "lastName": "Gerken",
                "userId": 3,
                "userIsActive": false,
                "userIsAdmin": true,
                "userTypeId": 2,
              },
              "handleInputChange": undefined,
              "handleRoomNumberChange": undefined,
              "index": 2,
              "saveRoomNumber": undefined,
              "saveSetAdmins": [Function],
            },
            "ref": null,
            "rendered": null,
            "type": [Function],
          },
        ],
        "type": "div",
      },
    ],
    "type": "div",
  },
  Symbol(enzyme.__nodes__): Array [
    Object {
      "instance": null,
      "key": undefined,
      "nodeType": "host",
      "props": Object {
        "children": Array [
          <div>
            <p>
                        Please note, as you mark a user as active it will use one of licenses that your school has purchased.  You are currently using 
                        10
                         licenses of the 
                        20
                         total you've purchased.
            </p>
</div>,
          <div>
            <p>
                        Licenses Purchased: 
                        20
                         / 
                        <span
                                    className="no-error"
                        >
                                    Licenses Used: 
                                    10
                        </span>
            </p>
</div>,
          <div>
            <SelectionControl
                        checkedCheckboxIcon={
                                    <FontIcon
                                                iconClassName="material-icons"
                                    >
                                                check_box
                                    </FontIcon>
                        }
                        checkedRadioIcon={
                                    <FontIcon
                                                iconClassName="material-icons"
                                    >
                                                radio_button_checked
                                    </FontIcon>
                        }
                        className="md-cell"
                        id="all-is-active"
                        label="Mark all Is Active"
                        labelBefore={true}
                        name="all-is-active"
                        onChange={[Function]}
                        type="checkbox"
                        uncheckedCheckboxIcon={
                                    <FontIcon
                                                iconClassName="material-icons"
                                    >
                                                check_box_outline_blank
                                    </FontIcon>
                        }
                        uncheckedRadioIcon={
                                    <FontIcon
                                                iconClassName="material-icons"
                                    >
                                                radio_button_unchecked
                                    </FontIcon>
                        }
            />
</div>,
          <div>
            <ul
                        className="list-subheadings"
            >
                        <li>
                                    Teacher Name
                        </li>
                        <li>
                                    Is Admin
                        </li>
                        <li>
                                    Is Active
                        </li>
                        <li>
                                    Room Number
                        </li>
            </ul>
</div>,
          <div
            className="list-of-teacher-info"
>
            <StaffersListItem
                        details={
                                    Object {
                                                "firstName": "Mark",
                                                "lastName": "Bernard",
                                                "userId": 1,
                                                "userIsActive": false,
                                                "userIsAdmin": true,
                                                "userTypeId": 2,
                                              }
                        }
                        handleInputChange={undefined}
                        handleRoomNumberChange={undefined}
                        index={0}
                        saveRoomNumber={undefined}
                        saveSetAdmins={[Function]}
            />
            <StaffersListItem
                        details={
                                    Object {
                                                "firstName": "Vince",
                                                "lastName": "Bernard",
                                                "userId": 2,
                                                "userIsActive": false,
                                                "userIsAdmin": true,
                                                "userTypeId": 2,
                                              }
                        }
                        handleInputChange={undefined}
                        handleRoomNumberChange={undefined}
                        index={1}
                        saveRoomNumber={undefined}
                        saveSetAdmins={[Function]}
            />
            <StaffersListItem
                        details={
                                    Object {
                                                "firstName": "John",
                                                "lastName": "Gerken",
                                                "userId": 3,
                                                "userIsActive": false,
                                                "userIsAdmin": true,
                                                "userTypeId": 2,
                                              }
                        }
                        handleInputChange={undefined}
                        handleRoomNumberChange={undefined}
                        index={2}
                        saveRoomNumber={undefined}
                        saveSetAdmins={[Function]}
            />
</div>,
        ],
      },
      "ref": null,
      "rendered": Array [
        Object {
          "instance": null,
          "key": undefined,
          "nodeType": "host",
          "props": Object {
            "children": <p>
              Please note, as you mark a user as active it will use one of licenses that your school has purchased.  You are currently using 
              10
               licenses of the 
              20
               total you've purchased.
</p>,
          },
          "ref": null,
          "rendered": Object {
            "instance": null,
            "key": undefined,
            "nodeType": "host",
            "props": Object {
              "children": Array [
                "Please note, as you mark a user as active it will use one of licenses that your school has purchased.  You are currently using ",
                10,
                " licenses of the ",
                20,
                " total you've purchased.",
              ],
            },
            "ref": null,
            "rendered": Array [
              "Please note, as you mark a user as active it will use one of licenses that your school has purchased.  You are currently using ",
              10,
              " licenses of the ",
              20,
              " total you've purchased.",
            ],
            "type": "p",
          },
          "type": "div",
        },
        Object {
          "instance": null,
          "key": undefined,
          "nodeType": "host",
          "props": Object {
            "children": <p>
              Licenses Purchased: 
              20
               / 
              <span
                            className="no-error"
              >
                            Licenses Used: 
                            10
              </span>
</p>,
          },
          "ref": null,
          "rendered": Object {
            "instance": null,
            "key": undefined,
            "nodeType": "host",
            "props": Object {
              "children": Array [
                "Licenses Purchased: ",
                20,
                " / ",
                <span
                  className="no-error"
>
                  Licenses Used: 
                  10
</span>,
              ],
            },
            "ref": null,
            "rendered": Array [
              "Licenses Purchased: ",
              20,
              " / ",
              Object {
                "instance": null,
                "key": undefined,
                "nodeType": "host",
                "props": Object {
                  "children": Array [
                    "Licenses Used: ",
                    10,
                  ],
                  "className": "no-error",
                },
                "ref": null,
                "rendered": Array [
                  "Licenses Used: ",
                  10,
                ],
                "type": "span",
              },
            ],
            "type": "p",
          },
          "type": "div",
        },
        Object {
          "instance": null,
          "key": undefined,
          "nodeType": "host",
          "props": Object {
            "children": <SelectionControl
              checkedCheckboxIcon={
                            <FontIcon
                                          iconClassName="material-icons"
                            >
                                          check_box
                            </FontIcon>
              }
              checkedRadioIcon={
                            <FontIcon
                                          iconClassName="material-icons"
                            >
                                          radio_button_checked
                            </FontIcon>
              }
              className="md-cell"
              id="all-is-active"
              label="Mark all Is Active"
              labelBefore={true}
              name="all-is-active"
              onChange={[Function]}
              type="checkbox"
              uncheckedCheckboxIcon={
                            <FontIcon
                                          iconClassName="material-icons"
                            >
                                          check_box_outline_blank
                            </FontIcon>
              }
              uncheckedRadioIcon={
                            <FontIcon
                                          iconClassName="material-icons"
                            >
                                          radio_button_unchecked
                            </FontIcon>
              }
/>,
          },
          "ref": null,
          "rendered": Object {
            "instance": null,
            "key": undefined,
            "nodeType": "class",
            "props": Object {
              "checkedCheckboxIcon": <FontIcon
                iconClassName="material-icons"
>
                check_box
</FontIcon>,
              "checkedRadioIcon": <FontIcon
                iconClassName="material-icons"
>
                radio_button_checked
</FontIcon>,
              "className": "md-cell",
              "id": "all-is-active",
              "label": "Mark all Is Active",
              "labelBefore": true,
              "name": "all-is-active",
              "onChange": [Function],
              "type": "checkbox",
              "uncheckedCheckboxIcon": <FontIcon
                iconClassName="material-icons"
>
                check_box_outline_blank
</FontIcon>,
              "uncheckedRadioIcon": <FontIcon
                iconClassName="material-icons"
>
                radio_button_unchecked
</FontIcon>,
            },
            "ref": null,
            "rendered": null,
            "type": [Function],
          },
          "type": "div",
        },
        Object {
          "instance": null,
          "key": undefined,
          "nodeType": "host",
          "props": Object {
            "children": <ul
              className="list-subheadings"
>
              <li>
                            Teacher Name
              </li>
              <li>
                            Is Admin
              </li>
              <li>
                            Is Active
              </li>
              <li>
                            Room Number
              </li>
</ul>,
          },
          "ref": null,
          "rendered": Object {
            "instance": null,
            "key": undefined,
            "nodeType": "host",
            "props": Object {
              "children": Array [
                <li>
                  Teacher Name
</li>,
                <li>
                  Is Admin
</li>,
                <li>
                  Is Active
</li>,
                <li>
                  Room Number
</li>,
              ],
              "className": "list-subheadings",
            },
            "ref": null,
            "rendered": Array [
              Object {
                "instance": null,
                "key": undefined,
                "nodeType": "host",
                "props": Object {
                  "children": "Teacher Name",
                },
                "ref": null,
                "rendered": "Teacher Name",
                "type": "li",
              },
              Object {
                "instance": null,
                "key": undefined,
                "nodeType": "host",
                "props": Object {
                  "children": "Is Admin",
                },
                "ref": null,
                "rendered": "Is Admin",
                "type": "li",
              },
              Object {
                "instance": null,
                "key": undefined,
                "nodeType": "host",
                "props": Object {
                  "children": "Is Active",
                },
                "ref": null,
                "rendered": "Is Active",
                "type": "li",
              },
              Object {
                "instance": null,
                "key": undefined,
                "nodeType": "host",
                "props": Object {
                  "children": "Room Number",
                },
                "ref": null,
                "rendered": "Room Number",
                "type": "li",
              },
            ],
            "type": "ul",
          },
          "type": "div",
        },
        Object {
          "instance": null,
          "key": undefined,
          "nodeType": "host",
          "props": Object {
            "children": Array [
              <StaffersListItem
                details={
                                Object {
                                                "firstName": "Mark",
                                                "lastName": "Bernard",
                                                "userId": 1,
                                                "userIsActive": false,
                                                "userIsAdmin": true,
                                                "userTypeId": 2,
                                              }
                }
                handleInputChange={undefined}
                handleRoomNumberChange={undefined}
                index={0}
                saveRoomNumber={undefined}
                saveSetAdmins={[Function]}
/>,
              <StaffersListItem
                details={
                                Object {
                                                "firstName": "Vince",
                                                "lastName": "Bernard",
                                                "userId": 2,
                                                "userIsActive": false,
                                                "userIsAdmin": true,
                                                "userTypeId": 2,
                                              }
                }
                handleInputChange={undefined}
                handleRoomNumberChange={undefined}
                index={1}
                saveRoomNumber={undefined}
                saveSetAdmins={[Function]}
/>,
              <StaffersListItem
                details={
                                Object {
                                                "firstName": "John",
                                                "lastName": "Gerken",
                                                "userId": 3,
                                                "userIsActive": false,
                                                "userIsAdmin": true,
                                                "userTypeId": 2,
                                              }
                }
                handleInputChange={undefined}
                handleRoomNumberChange={undefined}
                index={2}
                saveRoomNumber={undefined}
                saveSetAdmins={[Function]}
/>,
            ],
            "className": "list-of-teacher-info",
          },
          "ref": null,
          "rendered": Array [
            Object {
              "instance": null,
              "key": "0",
              "nodeType": "function",
              "props": Object {
                "details": Object {
                  "firstName": "Mark",
                  "lastName": "Bernard",
                  "userId": 1,
                  "userIsActive": false,
                  "userIsAdmin": true,
                  "userTypeId": 2,
                },
                "handleInputChange": undefined,
                "handleRoomNumberChange": undefined,
                "index": 0,
                "saveRoomNumber": undefined,
                "saveSetAdmins": [Function],
              },
              "ref": null,
              "rendered": null,
              "type": [Function],
            },
            Object {
              "instance": null,
              "key": "1",
              "nodeType": "function",
              "props": Object {
                "details": Object {
                  "firstName": "Vince",
                  "lastName": "Bernard",
                  "userId": 2,
                  "userIsActive": false,
                  "userIsAdmin": true,
                  "userTypeId": 2,
                },
                "handleInputChange": undefined,
                "handleRoomNumberChange": undefined,
                "index": 1,
                "saveRoomNumber": undefined,
                "saveSetAdmins": [Function],
              },
              "ref": null,
              "rendered": null,
              "type": [Function],
            },
            Object {
              "instance": null,
              "key": "2",
              "nodeType": "function",
              "props": Object {
                "details": Object {
                  "firstName": "John",
                  "lastName": "Gerken",
                  "userId": 3,
                  "userIsActive": false,
                  "userIsAdmin": true,
                  "userTypeId": 2,
                },
                "handleInputChange": undefined,
                "handleRoomNumberChange": undefined,
                "index": 2,
                "saveRoomNumber": undefined,
                "saveSetAdmins": [Function],
              },
              "ref": null,
              "rendered": null,
              "type": [Function],
            },
          ],
          "type": "div",
        },
      ],
      "type": "div",
    },
  ],
  Symbol(enzyme.__options__): Object {
    "adapter": ReactSixteenAdapter {
      "options": Object {
        "enableComponentDidUpdateOnSetState": true,
      },
    },
  },
}
`;
